<?xml version="1.0" standalone="no"?>
<!DOCTYPE svg PUBLIC "-//W3C//DTD SVG 20010904//EN"
 "http://www.w3.org/TR/2001/REC-SVG-20010904/DTD/svg10.dtd">
<svg version="1.0" xmlns="http://www.w3.org/2000/svg"
 width="78.000000pt" height="81.000000pt" viewBox="0 0 78.000000 81.000000"
 preserveAspectRatio="xMidYMid meet">
<metadata>
Created by potrace 1.10, written by Peter Selinger 2001-2011
</metadata>
<g transform="translate(0.000000,81.000000) scale(0.100000,-0.100000)"
fill="#969696" stroke="none">
<path d="M300 796 c0 -16 -21 -26 -56 -26 -37 0 -95 -33 -143 -81 -75 -75
-100 -145 -100 -279 0 -134 25 -204 100 -279 187 -187 511 -128 625 114 27 58
27 272 0 330 -45 96 -149 185 -231 198 -22 4 -45 13 -51 22 -15 21 -144 22
-144 1z m-10 -63 c0 -5 -12 -19 -26 -33 -14 -13 -30 -34 -35 -47 -10 -27 -26
-29 -57 -7 -27 18 -23 26 30 65 38 27 88 39 88 22z m60 -74 l0 -81 -31 6 c-17
3 -38 6 -45 6 -8 0 -14 8 -14 19 0 21 68 131 81 131 5 0 9 -37 9 -81z m85 44
c19 -20 35 -41 35 -46 0 -6 7 -18 16 -28 9 -10 13 -22 10 -27 -8 -14 -86 -26
-96 -16 -11 13 -20 154 -10 154 5 0 25 -16 45 -37z m82 26 c6 -6 21 -16 34
-23 37 -19 46 -42 25 -65 -27 -30 -39 -26 -64 18 -12 21 -29 44 -37 51 -8 7
-12 16 -9 21 7 13 38 11 51 -2z m-338 -137 c23 -18 23 -20 8 -53 -9 -19 -17
-50 -19 -69 -3 -35 -3 -35 -53 -36 -27 -1 -58 0 -68 3 -18 5 -23 38 -7 48 6 3
10 14 10 23 0 22 37 94 57 109 17 13 29 9 72 -25z m507 -52 c14 -30 24 -66 22
-80 -3 -23 -7 -25 -53 -25 -75 0 -82 5 -90 81 -6 61 -5 67 16 82 55 40 64 35
105 -58z m-382 4 l47 -16 -3 -46 -3 -47 -53 -1 c-68 -1 -87 12 -73 49 6 16 11
39 11 53 0 28 10 29 74 8z m221 -28 c4 -18 5 -44 3 -57 -3 -22 -8 -24 -53 -25
-71 -1 -87 9 -83 53 3 33 7 38 43 49 70 21 83 18 90 -20z m-354 -171 c3 -22
11 -53 18 -68 6 -16 11 -30 11 -32 0 -7 -72 -45 -85 -45 -16 0 -46 54 -71 126
-19 57 -13 62 65 60 l56 -2 6 -39z m177 -7 c3 -43 1 -48 -18 -48 -12 0 -35 -7
-51 -16 -17 -8 -34 -13 -37 -9 -4 3 -12 27 -19 53 -15 59 -4 69 69 68 l53 -1
3 -47z m180 11 c4 -43 -13 -89 -32 -89 -8 0 -35 9 -60 20 -42 18 -46 22 -46
54 0 43 16 53 84 52 l51 -1 3 -36z m180 11 c3 -26 -34 -118 -61 -155 -15 -19
-15 -19 -54 7 l-39 26 11 66 c6 37 16 70 22 74 6 4 35 7 65 7 49 0 53 -2 56
-25z m-358 -196 c0 -90 -12 -95 -57 -23 -45 71 -45 80 2 94 22 6 43 10 48 8 4
-2 7 -38 7 -79z m142 59 c19 -11 -68 -133 -94 -133 -17 0 -12 131 6 142 10 7
71 1 88 -9z m-262 -51 c3 -12 17 -35 32 -51 27 -28 27 -41 1 -41 -19 0 -113
62 -113 75 0 13 51 46 65 41 5 -1 12 -12 15 -24z m360 -16 c0 -14 -31 -46 -45
-46 -7 0 -18 -7 -25 -15 -14 -17 -50 -20 -50 -5 0 5 16 32 36 60 35 49 36 50
60 32 13 -9 24 -21 24 -26z"/>
</g>
</svg>
